{
  "cookiecutter": {
    "institution": "Washington State University (WSU)",
    "department": "Physics",
    "campus": "Pullman",
    "campus_state": "WA",
    "dept": "Phys",
    "course_number": "555",
    "course_section": "01",
    "year": "2022",
    "term": "Fall",
    "credits": "3",
    "prerequisites": "Linear Algebra",
    "grading_statement": "Grade based on assignments and project presentation.",
    "class_time": "MW, 3:10pm - 4:30pm",
    "class_room": "[Spark 235](https://li.wsu.edu/buildings-and-spaces/general-university-classrooms/classroom-specs/spark-235)",
    "perusall_url": "",
    "zoom_number": "505 115 089",
    "zoom_url": "https://wsu.zoom.us/j/505115089",
    "canvas_url": "",
    "catalogue_entry": "https://catalog.wsu.edu/Pullman/Courses/ByList/PHYSICS/555",
    "wsu_class_number": "16265/16266",
    "author": "Michael McNeil Forbes",
    "author_email": "m.forbes+555@wsu.edu",
    "office": "Webster 947F",
    "phone": "(509) 720-8095",
    "office_hours": "TBD",
    "title": "Quantum Technologies and Computing",
    "short_title": "Quantum Technologies",
    "course_name": "Phys 555: Quantum Technologies and Computing",
    "project_name": "Phys 555 - Quantum Technologies",
    "project_name_year": "Phys 555 - Quantum Technologies (Fall 2022)",
    "project_slug": "phys-555-quantum-technologies",
    "pkg_name": "phys_555_2022",
    "env_name": "phys-555-2022",
    "version": "0.1",
    "one_line_description": "WSU Course Physics 555: Quantum Technologies and Computing taught Fall 2022",
    "cocalc_project": "ebaafbe3-f8cf-4598-a2c9-e7b6c64023c4",
    "cocalc_course_project": "c31d20a3-b0af-4bf7-a951-aa93a64395f6",
    "cocalc_url": "https://cocalc.com/projects/ebaafbe3-f8cf-4598-a2c9-e7b6c64023c4/files/",
    "cocalc_course_url": "https://cocalc.com/projects/c31d20a3-b0af-4bf7-a951-aa93a64395f6/files/Archive/Physics555/2022-Phys-555-Fall.course",
    "gitlab_url": "https://gitlab.com/wsu-courses/physics-555-quantum-technologies",
    "gitlab_git": "https://gitlab.com/wsu-courses/physics-555-quantum-technologies.git",
    "github_url": "https://github.com/WSU-Physics-Courses/physics-555-quantum-technologies",
    "github_git": "https://github.com/WSU-Physics-Courses/physics-555-quantum-technologies.git",
    "repository_url": "https://gitlab.com/wsu-courses/physics-555-quantum-technologies",
    "issues_url": "https://gitlab.com/wsu-courses/physics-555-quantum-technologies/issues",
    "get_resources": "",
    "use_manim": "yes",
    "rtd_url": "https://physics-555-quantum-technologies.readthedocs.io/en/latest/",
    "course_page": "[Phys Phys (Fall 2022)](https://schedules.wsu.edu/List/Pullman/20223/Phys/555/01)",
    "_symlinks": {
      "Docs/InstructorNotes.md": "../InstructorNotes.md",
      "Docs/README.md": "../README.md"
    },
    "_copy_without_render": [
      "Docs/*.bib",
      "Docs/_*",
      "Docs/Notes/*"
    ],
    "personnel": {
      "instructors": [
        "Michael McNeil Forbes [`m.forbes+555@wsu.edu`](mailto:m.forbes+555@wsu.edu)"
      ],
      "assistants": [
        "TBA"
      ]
    },
    "syllabus": {
      "instructors": "['Michael McNeil Forbes [`m.forbes+555@wsu.edu`](mailto:m.forbes+555@wsu.edu)']",
      "assistants": "['TBA']",
      "institution": "Washington State University (WSU)",
      "campus": "Pullman",
      "campus_state": "WA",
      "dept": "Phys",
      "course_number": "555",
      "course_section": "01",
      "year": "2022",
      "term": "Fall",
      "class_time": "MW, 3:10pm - 4:30pm",
      "class_room": "[Spark 235](https://li.wsu.edu/buildings-and-spaces/general-university-classrooms/classroom-specs/spark-235)",
      "perusall_url": "",
      "zoom_number": "505 115 089",
      "zoom_url": "https://wsu.zoom.us/j/505115089",
      "canvas_url": "",
      "catalogue_entry": "https://catalog.wsu.edu/Pullman/Courses/ByList/PHYSICS/555",
      "course_page": "[Phys Phys (Fall 2022)](https://schedules.wsu.edu/List/Pullman/20223/Phys/555/01)",
      "wsu_class_number": "16265/16266",
      "office": "Webster 947F",
      "office_hours": "TBD",
      "phone": "(509) 720-8095",
      "department": "Physics",
      "course_name": "Phys 555: Quantum Technologies and Computing",
      "cocalc_project": "ebaafbe3-f8cf-4598-a2c9-e7b6c64023c4",
      "cocalc_course_project": "c31d20a3-b0af-4bf7-a951-aa93a64395f6",
      "cocalc_url": "https://cocalc.com/projects/ebaafbe3-f8cf-4598-a2c9-e7b6c64023c4/files/",
      "cocalc_course_url": "https://cocalc.com/projects/c31d20a3-b0af-4bf7-a951-aa93a64395f6/files/Archive/Physics555/2022-Phys-555-Fall.course",
      "credits": "3",
      "prerequisites": "Linear Algebra",
      "grading_statement": "Grade based on assignments and project presentation."
    },
    "_template": "hg+https://hg.iscimath.org/forbes-group/cookiecutter-templates",
    "_output_dir": "/Users/mforbes/current/courses/555/Course"
  }
}